-------------------------------------------------------------------------------
Test set: com.citi.trading.InvestorTest
-------------------------------------------------------------------------------
Tests run: 13, Failures: 0, Errors: 0, Skipped: 0, Time elapsed: 0.235 sec
